<?xml version="1.0" encoding="utf-8"?>
<!-- Generator: Adobe Illustrator 23.0.1, SVG Export Plug-In . SVG Version: 6.00 Build 0)  -->
<svg version="1.1" id="Layer_1" xmlns="http://www.w3.org/2000/svg" xmlns:xlink="http://www.w3.org/1999/xlink" x="0px" y="0px"
	 viewBox="0 0 300 300" style="enable-background:new 0 0 300 300;" xml:space="preserve">
<style type="text/css">
	.st0{fill:#FFFFFF;}
</style>
<path class="st0" d="M149.89,60.43c-49.38,0-89.55,40.17-89.55,89.55s40.17,89.55,89.55,89.55c49.38,0,89.55-40.17,89.55-89.55
	S199.27,60.43,149.89,60.43 M149.89,225.18c-40.7,0-73.82-33.73-73.82-75.19s33.11-75.19,73.82-75.19
	c40.71,0,73.82,33.73,73.82,75.19S190.59,225.18,149.89,225.18"/>
<path class="st0" d="M150.53,100.79h-35.97v97.4h35.97c8.52,0,16.16-1.63,22.66-4.77l14.16,11.55l9.28-11.28l-11.51-9.16
	c7.66-8.46,11.71-20.54,11.71-35.04C196.82,119.45,179.08,100.79,150.53,100.79 M173.23,174.5l-13.97-11.29l-9.42,11.59l10.43,7.88
	c-3.27,0.81-6.98,1.23-11.08,1.23h-18.75v-68.84h18.75c11.24,0,19.69,3.26,23.81,9.2c4.56,6.51,6.33,13.58,6.33,25.22
	C179.33,160.85,177.56,168.14,173.23,174.5"/>
</svg>
