<?xml version="1.0" encoding="utf-8"?>
<!-- Generator: Adobe Illustrator 22.0.0, SVG Export Plug-In . SVG Version: 6.00 Build 0)  -->
<svg version="1.1" id="Layer_1" xmlns="http://www.w3.org/2000/svg" xmlns:xlink="http://www.w3.org/1999/xlink" x="0px" y="0px"
	 viewBox="0 0 456.3 333.4" style="enable-background:new 0 0 456.3 333.4;" xml:space="preserve">
<style type="text/css">
	.st0{fill:#231F20;}
</style>
<path class="st0" d="M132.9,0H0v76h123.1c84.8,0,152,25.3,185.2,73.1c33.1,47.3,47.8,99.3,48.6,184.3h99.4
	C453.4,132.1,336.9,0,132.9,0z"/>
</svg>
