<svg 
 xmlns="http://www.w3.org/2000/svg"
 xmlns:xlink="http://www.w3.org/1999/xlink"
 viewBox="0 0 234 85" preserveAspectRatio="none">
<path fill-rule="evenodd"  fill="rgb(255, 255, 255)"
 d="M219.883,84.999 L14.116,84.999 L14.116,82.810 C14.116,76.197 8.761,70.817 2.179,70.817 L0.000,70.817 L0.000,14.183 L2.179,14.183 C8.761,14.183 14.116,8.802 14.116,2.189 L14.116,0.000 L219.883,0.000 L219.883,2.189 C219.883,8.802 225.239,14.183 231.821,14.183 L234.000,14.183 L234.000,70.817 L231.821,70.817 C225.239,70.817 219.883,76.197 219.883,82.810 L219.883,84.999 ZM18.329,80.621 L215.671,80.621 C216.643,73.342 222.396,67.562 229.642,66.585 L229.642,18.415 C222.396,17.438 216.643,11.658 215.671,4.378 L18.329,4.378 C17.356,11.658 11.603,17.438 4.358,18.415 L4.358,66.585 C11.603,67.562 17.356,73.342 18.329,80.621 Z"/>
</svg>